(module MosfetWirePad_SMD_5x10mm (layer F.Cu) (tedit 58DB8E5D)
  (descr "Wire mosfet, SMD Pads  5mm x 10mm,")
  (tags "SMDPad 5mmx10mm ")
  (attr smd)
  (fp_text reference Q** (at 0 -7.112) (layer F.SilkS)
    (effects (font (size 1 1) (thickness 0.15)))
  )
  (fp_text value "" (at 0 6.35) (layer F.Fab)
    (effects (font (size 1 1) (thickness 0.15)))
  )
  (pad D smd rect (at -6 0) (size 5 10) (layers F.Cu))
  (pad S smd rect (at 6 0) (size 5 10) (layers F.Cu))
  (pad G smd rect (at 0 2.5) (size 2 5) (layers F.Cu))
)
