(module TO-247 (layer F.Cu) (tedit 58CE98CD)
  (descr TO-247)
  (fp_text reference TO-247 (at 0 3.683) (layer F.SilkS)
    (effects (font (thickness 0.3048)))
  )
  (fp_text value Q*** (at 0 -4.064) (layer F.SilkS)
    (effects (font (thickness 0.3048)))
  )
  (fp_line (start 7.874 -0.889) (end -7.874 -0.889) (layer F.SilkS) (width 0.3048))
  (fp_line (start 7.874 2.159) (end 7.874 -2.921) (layer F.SilkS) (width 0.3048))
  (fp_line (start 7.874 -2.921) (end -7.874 -2.921) (layer F.SilkS) (width 0.3048))
  (fp_line (start -7.874 -2.921) (end -7.874 2.159) (layer F.SilkS) (width 0.3048))
  (fp_line (start -7.874 2.159) (end 7.874 2.159) (layer F.SilkS) (width 0.3048))
  (pad S thru_hole circle (at 5.461 0) (size 3.50012 3.50012) (drill 1.6) (layers *.Cu *.Mask F.SilkS))
  (pad D thru_hole circle (at 0 0) (size 3.50012 3.50012) (drill 1.6) (layers *.Cu *.Mask F.SilkS))
  (pad G thru_hole circle (at -5.461 0) (size 3.50012 3.50012) (drill 1.6) (layers *.Cu *.Mask F.SilkS))
  (model walter/to/to247.wrl
    (at (xyz 0 0 0))
    (scale (xyz 1 1 1))
    (rotate (xyz 0 0 0))
  )
)
