(module VIA-2,1mm_hole_1,2mm (layer F.Cu) (tedit 58DBCC6E)
  (fp_text reference REF** (at 0 4.191) (layer F.SilkS) hide
    (effects (font (size 1 1) (thickness 0.15)))
  )
  (fp_text value VIA-2,1mm_hole_1,2mm (at 0 -4.953) (layer F.Fab) hide
    (effects (font (size 1 1) (thickness 0.15)))
  )
  (pad 1 thru_hole circle (at 0 0) (size 2.1 2.1) (drill 1.2) (layers *.Cu)
    (zone_connect 2))
)
