(module Wire_resistor_Pad_SMD_5x10mm (layer F.Cu) (tedit 58DB8F63)
  (descr "Wire resistor")
  (tags "Wire resistor SMDPad 5mmx10mm ")
  (attr smd)
  (fp_text reference R** (at 0 -7.112) (layer F.SilkS)
    (effects (font (size 1 1) (thickness 0.15)))
  )
  (fp_text value "" (at 0 6.35) (layer F.Fab)
    (effects (font (size 1 1) (thickness 0.15)))
  )
  (pad 1 smd rect (at -4 0) (size 5 10) (layers F.Cu))
  (pad 2 smd rect (at 4 0) (size 5 10) (layers F.Cu))
)
